{
  "builders": [
    {
      "commit": true,
      "image": "{{user `repo_url`}}/php:latest",
      "type": "docker"
    }
  ],
  "post-processors": [
    [
      {
        "repository": "{{user `repo_url`}}/{{user `image_name`}}",
        "tags": [
          "0.0.x"
        ],
        "type": "docker-tag"
      },
      {
        "repository": "{{user `repo_url`}}/{{user `image_name`}}",
        "tags": [
          "latest"
        ],
        "type": "docker-tag"
      },
      {
        "type": "docker-push"
      }
    ]
  ],
  "provisioners": [
    {
      "inline": "mkdir -p /var/www/{{user `image_name`}}",
      "type": "shell"
    },
    {
      "destination": "/var/www/{{user `image_name`}}",
      "source": "./.clone/",
      "type": "file"
    },
    {
      "scripts": [
        "scripts/packer/scripts/{{user `image_name`}}.sh",
        "scripts/packer/scripts/cleanup.sh"
      ],
      "type": "shell"
    }
  ],
  "variables": {
    "image_name": "{{env `CONTAINER_PROJECT_NAME`}}",
    "repo_url": "{{env `CONTAINER_REGISTRY_URL`}}"
  }
}
